<?xml version="1.0" encoding="utf-8"?>
<!-- Generator: Adobe Illustrator 21.0.0, SVG Export Plug-In . SVG Version: 6.00 Build 0)  -->
<svg version="1.1" id="Layer_1" xmlns="http://www.w3.org/2000/svg" xmlns:xlink="http://www.w3.org/1999/xlink" x="0px" y="0px"
	 viewBox="0 0 32 27" style="enable-background:new 0 0 32 27;" xml:space="preserve">
<style type="text/css">
	.st0{fill:#FFFFFF;}
</style>
<g>
	<path class="st0" d="M28.5,5.7h-4.9c-0.4,0-0.8-0.2-1.1-0.7l-2-2.8c-0.6-0.8-1.3-1.2-2.1-1.2h-4.8c-0.8,0-1.6,0.4-2.1,1.2l-2,2.8
		C9.2,5.5,8.8,5.7,8.4,5.7H3.5C2.1,5.7,1,6.9,1,8.2v14.9c0,1.4,1.1,2.5,2.5,2.5h25c1.4,0,2.5-1.1,2.5-2.5V8.2
		C31,6.9,29.9,5.7,28.5,5.7z M29.7,23.2c0,0.7-0.5,1.2-1.2,1.2h-25c-0.7,0-1.2-0.5-1.2-1.2V8.2C2.3,7.6,2.9,7,3.5,7h4.9
		c0.8,0,1.6-0.4,2.1-1.2l2-2.8c0.3-0.4,0.7-0.7,1.1-0.7h4.8c0.4,0,0.8,0.2,1.1,0.7l2,2.8C22,6.6,22.8,7,23.6,7h4.9
		c0.7,0,1.2,0.5,1.2,1.2V23.2z"/>
	<path class="st0" d="M16,8.1c-3.8,0-7,3.1-7,7s3.1,7,7,7c3.8,0,7-3.1,7-7S19.8,8.1,16,8.1z M16,20.8c-3.1,0-5.7-2.5-5.7-5.7
		s2.5-5.7,5.7-5.7s5.7,2.5,5.7,5.7S19.1,20.8,16,20.8z"/>
	<path class="st0" d="M6.5,9H5C4.8,9,4.6,9.2,4.6,9.4v1.5c0,0.2,0.2,0.4,0.4,0.4h1.5c0.2,0,0.4-0.2,0.4-0.4V9.4C6.8,9.2,6.7,9,6.5,9
		z"/>
	<rect x="23.9" y="3.4" class="st0" width="4" height="1.3"/>
</g>
</svg>
