<?xml version="1.0" encoding="utf-8"?>
<!-- Generator: Adobe Illustrator 22.0.0, SVG Export Plug-In . SVG Version: 6.00 Build 0)  -->
<svg version="1.1" id="Layer_1" xmlns="http://www.w3.org/2000/svg" xmlns:xlink="http://www.w3.org/1999/xlink" x="0px" y="0px"
	 viewBox="0 0 64 64" style="enable-background:new 0 0 64 64;" xml:space="preserve">
<path d="M61.9,49.6H51.3v10.5h-3.5V49.6H37.3v-3.5h10.5V35.6h3.5v10.5h10.5V49.6z"/>
<path d="M24.2,44.4l-18.1-14l-4,3.1l22,17.1l22-17.1l-4-3.1C42.2,30.3,24.2,44.4,24.2,44.4z M24.2,38.1l18-14l4-3.1l-22-17.1L2.1,21
	l4,3.1L24.2,38.1z"/>
</svg>
